{
    "version_file": "pgext/__init__.py",
    "metadata": {
        "name": "pgext",
        "author": "Josef Vanzura",
        "author_email": "gindar@zamraky.cz",
        "url": "http://zamraky.cz/projects/pgext/",
        "description": "Pygame Extension - set of image filters",
        "classifiers": [
            "Development Status :: 5 - Production/Stable",
            "License :: OSI Approved :: MIT License",
            "Operating System :: MacOS :: MacOS X",
            "Operating System :: Microsoft :: Windows",
            "Operating System :: POSIX :: Linux",
            "Operating System :: OS Independent",
            "Programming Language :: C",
            "Programming Language :: Python",
            "Topic :: Games/Entertainment",
            "Topic :: Multimedia :: Graphics",
            "Topic :: Software Development :: Libraries :: pygame"
        ]
    },
    "files":{
        "packages": ["pgext"],
        "ext_modules": [
            ["pgext.color", ["src/color.c"], ["SDL"], ["SDL"] ],
            ["pgext.filters", ["src/filters.c"], ["SDL"], ["SDL"] ],
            ["pgext.ibi", ["src/ibi.c"], ["SDL"], ["SDL"] ]
        ],
        "ext_include": {
            "SDL": ["SDL/SDL.h", "SDL.h", "SDL/SDL.h"]
        },
        "ext_libraries": {
            "SDL": ["libSDL.so", "*SDL*", "libSDL*"]
        }
    }
}
